…
Exercise
Proportion of males admitted for each department

Finally we'll make a table similar to the one we constructed earlier, except we'll first group the data by department. **e goal is to compare the proportions of male admitted students across departments.**

Proportions for each row of the data frame we create can be calculated as n / sum(n). Note that since the data are grouped by department and gender, sum(n) will be calculated for males and females separately for each department.

    > ucb_admission_counts
    #A tibble: 4,526 x 3
    #Groups:   Dept, Gender [12]
       Admit    Gender Dept 
     * <fct>    <fct>  <chr>
     1 Admitted Male   A    
     2 Admitted Male   A    
     3 Admitted Male   A    
     4 Admitted Male   A    
     5 Admitted Male   A    
     6 Admitted Male   A    
     7 Admitted Male   A    
     8 Admitted Male   A    
     9 Admitted Male   A    
    10 Admitted Male   A    
    # ... with 4,516 more rows
…
